SetFactory("OpenCASCADE");
Rectangle(1) = {-10,-10,0, 20,20};
Point(5) = { 0, 1, 0, 0.01};
Point(6) = { 1, 0, 0, 0.01};
Point(7) = { 0.06363961030678927, 1.0777817459305203, 0, 0.01};
Point(8) = { 1.0777817459305203, 0.06363961030678927, 0, 0.01};
Point(9) = { -0.07778174593052023, 0.9363603896932108, 0, 0.01};
Point(10) = { 0.9363603896932108, -0.07778174593052023, 0, 0.01};
Circle(5) = { 7, 5, 9};
Circle(7) = { 10, 6, 8};
Line(6) = {9, 10};
Line(8) = {8, 7};
Line Loop(9) = {5,6,7,8};
Surface(2) = {9};
Point(11) = { 1, 0, 0, 0.01};
Point(12) = { 2, 0, 0, 0.01};
Point(13) = { 0.99, 0.1, 0, 0.01};
Point(14) = { 2.01, 0.1, 0, 0.01};
Point(15) = { 0.99, -0.1, 0, 0.01};
Point(16) = { 2.01, -0.1, 0, 0.01};
Circle(9) = { 13, 11, 15};
Circle(11) = { 16, 12, 14};
Line(10) = {15, 16};
Line(12) = {14, 13};
Line Loop(13) = {9,10,11,12};
Surface(3) = {13};

//v() = BooleanUnion{Surface{2}; Delete;}{Surface{3}; Delete;};
v() = BooleanFragments{Surface{1}; Delete;}{ Surface{2,3}; Delete; };

Physical Surface('blg', 1) = {1};
Physical Surface('l', 2) = {2,3,4,5,6};