\relax 
\providecommand\hyper@newdestlabel[2]{}
\providecommand\HyperFirstAtBeginDocument{\AtBeginDocument}
\HyperFirstAtBeginDocument{\ifx\hyper@anchor\@undefined
\global\let\oldcontentsline\contentsline
\gdef\contentsline#1#2#3#4{\oldcontentsline{#1}{#2}{#3}}
\global\let\oldnewlabel\newlabel
\gdef\newlabel#1#2{\newlabelxx{#1}#2}
\gdef\newlabelxx#1#2#3#4#5#6{\oldnewlabel{#1}{{#2}{#3}}}
\AtEndDocument{\ifx\hyper@anchor\@undefined
\let\contentsline\oldcontentsline
\let\newlabel\oldnewlabel
\fi}
\fi}
\global\let\hyper@last\relax 
\gdef\HyperFirstAtBeginDocument#1{#1}
\providecommand\HyField@AuxAddToFields[1]{}
\providecommand\HyField@AuxAddToCoFields[2]{}
\citation{repo}
\citation{FEniCS}
\citation{FEM}
\citation{FEniCS}
\citation{FEniCS_book}
\@writefile{toc}{\contentsline {section}{\numberline {1}Introduction}{1}{section.1}\protected@file@percent }
\newlabel{Ohm}{{1}{1}{Introduction}{equation.1.1}{}}
\newlabel{diffusion_potential}{{3}{1}{Introduction}{equation.1.3}{}}
\citation{repo}
\@writefile{toc}{\contentsline {section}{\numberline {2}Mathematical formulation}{2}{section.2}\protected@file@percent }
\newlabel{math}{{2}{2}{Mathematical formulation}{section.2}{}}
\newlabel{continuity}{{4}{2}{Mathematical formulation}{equation.2.4}{}}
\newlabel{constitutive}{{5}{2}{Mathematical formulation}{equation.2.5}{}}
\newlabel{system}{{6}{2}{Mathematical formulation}{equation.2.6}{}}
\@writefile{toc}{\contentsline {subsection}{\numberline {2.1}Basis functions}{3}{subsection.2.1}\protected@file@percent }
\newlabel{system_homo}{{10}{3}{Basis functions}{equation.2.10}{}}
\newlabel{system_inhomo}{{11}{3}{Basis functions}{equation.2.11}{}}
\newlabel{decomposition}{{14}{3}{Basis functions}{equation.2.14}{}}
\@writefile{toc}{\contentsline {subsection}{\numberline {2.2}Adjoint problem}{3}{subsection.2.2}\protected@file@percent }
\newlabel{system_adj}{{15}{3}{Adjoint problem}{equation.2.15}{}}
\@writefile{toc}{\contentsline {subsection}{\numberline {2.3}Fluxes and linear response}{4}{subsection.2.3}\protected@file@percent }
\newlabel{S_def}{{21}{4}{Fluxes and linear response}{equation.2.21}{}}
\citation{MarkReciprocity}
\citation{Song}
\newlabel{S_resp}{{25}{5}{Fluxes and linear response}{equation.2.25}{}}
\newlabel{reciprocity}{{26}{5}{Fluxes and linear response}{equation.2.26}{}}
\@writefile{toc}{\contentsline {subsection}{\numberline {2.4}Discretization of the PDE problem}{5}{subsection.2.4}\protected@file@percent }
\citation{FEniCS}
\citation{repo}
\citation{GMSH}
\@writefile{toc}{\contentsline {section}{\numberline {3}Example: Electrical conduction in magnetic field}{6}{section.3}\protected@file@percent }
\newlabel{example_conduction}{{3}{6}{Example: Electrical conduction in magnetic field}{section.3}{}}
\@writefile{toc}{\contentsline {subsection}{\numberline {3.1}Geometry definition}{6}{subsection.3.1}\protected@file@percent }
\@writefile{toc}{\contentsline {subsection}{\numberline {3.2}Coefficients definition}{7}{subsection.3.2}\protected@file@percent }
\@writefile{toc}{\contentsline {subsection}{\numberline {3.3}Problem solution}{7}{subsection.3.3}\protected@file@percent }
\citation{ParaView}
\@writefile{toc}{\contentsline {subsection}{\numberline {3.4}Post-processing}{8}{subsection.3.4}\protected@file@percent }
\citation{AshcroftMermin}
\citation{ThermoelectricDetection}
\@writefile{lof}{\contentsline {figure}{\numberline {1}{\ignorespaces  Left. Potential map of the solution of the magnetotransport problem. Right. Cross sections of the solution taken at $x=-3$ (blue), $x=-1.5$ (orange), $x=0$ (green), $x=1.5$ (red), $x=3$ (violet).}}{9}{figure.1}\protected@file@percent }
\newlabel{fig1}{{1}{9}{Left. Potential map of the solution of the magnetotransport problem. Right. Cross sections of the solution taken at $x=-3$ (blue), $x=-1.5$ (orange), $x=0$ (green), $x=1.5$ (red), $x=3$ (violet)}{figure.1}{}}
\@writefile{toc}{\contentsline {section}{\numberline {4}Example: thermoelectric transport}{9}{section.4}\protected@file@percent }
\newlabel{example_theroelectric}{{4}{9}{Example: thermoelectric transport}{section.4}{}}
\@writefile{toc}{\contentsline {subsection}{\numberline {4.1}Coefficients definition}{9}{subsection.4.1}\protected@file@percent }
\citation{repo}
\@writefile{toc}{\contentsline {subsection}{\numberline {4.2}Problem solution}{10}{subsection.4.2}\protected@file@percent }
\citation{repo}
\@writefile{lof}{\contentsline {figure}{\numberline {2}{\ignorespaces  Left. Voltage field obtained for the thermoelectric example. Right. Temperature field obtained for the same example. Note the impact of the Seebeck gradient extending away from the junction and the temperature rise due to the light spot.}}{11}{figure.2}\protected@file@percent }
\newlabel{fig2}{{2}{11}{Left. Voltage field obtained for the thermoelectric example. Right. Temperature field obtained for the same example. Note the impact of the Seebeck gradient extending away from the junction and the temperature rise due to the light spot}{figure.2}{}}
\@writefile{toc}{\contentsline {subsection}{\numberline {4.3}Post-processing}{11}{subsection.4.3}\protected@file@percent }
\@writefile{toc}{\contentsline {section}{\numberline {5}Summary and future development}{11}{section.5}\protected@file@percent }
\newlabel{summary}{{5}{11}{Summary and future development}{section.5}{}}
\@writefile{lof}{\contentsline {figure}{\numberline {3}{\ignorespaces  Left. Temperature field obtained for the thermoelctric problem represented as sections at $y=0$ (blue), $y=0.5$ (orange), and $y=1$ (green). Right. Generalized responsivity connecting a heat source to the charge current at contact 1.}}{12}{figure.3}\protected@file@percent }
\newlabel{fig3}{{3}{12}{Left. Temperature field obtained for the thermoelctric problem represented as sections at $y=0$ (blue), $y=0.5$ (orange), and $y=1$ (green). Right. Generalized responsivity connecting a heat source to the charge current at contact 1}{figure.3}{}}
\@writefile{toc}{\contentsline {section}{\numberline {Appendix A}Proof of the uniqueness of the solution of Eq. (\ref  {system})}{12}{appendix.A}\protected@file@percent }
\newlabel{proof_uniqueness}{{Appendix A}{12}{Proof of the uniqueness of the solution of Eq. (\ref {system})}{appendix.A}{}}
\newlabel{system_difference}{{A.1}{12}{Proof of the uniqueness of the solution of Eq. (\ref {system})}{equation.A.1}{}}
\newlabel{uniqueness}{{A.4}{12}{Proof of the uniqueness of the solution of Eq. (\ref {system})}{equation.A.4}{}}
\@writefile{toc}{\contentsline {section}{\numberline {Appendix B}Symmetry and signature of the response matrix}{13}{appendix.B}\protected@file@percent }
\newlabel{symmetry}{{Appendix B}{13}{Symmetry and signature of the response matrix}{appendix.B}{}}
\newlabel{symmetry_G}{{B.1}{13}{Symmetry and signature of the response matrix}{equation.B.1}{}}
\@writefile{toc}{\contentsline {section}{\numberline {Appendix C}Proof of the reciprocity theorem Eq. (\ref  {reciprocity})}{14}{appendix.C}\protected@file@percent }
\newlabel{app_reciprocity}{{Appendix C}{14}{Proof of the reciprocity theorem Eq. (\ref {reciprocity})}{appendix.C}{}}
\bibcite{repo}{1}
\bibcite{FEniCS}{2}
\bibcite{FEM}{3}
\bibcite{FEniCS_book}{4}
\bibcite{MarkReciprocity}{5}
\bibcite{Song}{6}
\bibcite{GMSH}{7}
\bibcite{ParaView}{8}
\bibcite{AshcroftMermin}{9}
\bibcite{ThermoelectricDetection}{10}
